{
	"version": "0.2.0",
	"configurations": [
		{
			"name": "Launch",
			"type": "node",
			"request": "launch",
			"preLaunchTask": "tsc",
			"program": "${workspaceRoot}/app/index.js",
			"stopOnEntry": false,
			"args": [],
			"cwd": "${workspaceRoot}/",
			"runtimeExecutable": null,
			"runtimeArgs": [
				"--nolazy",
        "--harmony"
			],
			"env": {
				"NODE_ENV": "development",
				"telegramSingBotToken": "asdaiodj"
			},
			"externalConsole": false,
			"sourceMaps": true,
			"outDir": "${workspaceRoot}/app"
		}
	]
}